module gitlab.com/qosenergy/amqpw

go 1.21.0

require (
	github.com/cenkalti/backoff/v4 v4.3.0
	github.com/rabbitmq/amqp091-go v1.10.0
	github.com/smartystreets/goconvey v1.8.1
	github.com/stretchr/testify v1.9.0
	golang.org/x/sync v0.7.0
)

require (
	github.com/davecgh/go-spew v1.1.1 // indirect
	github.com/gopherjs/gopherjs v1.17.2 // indirect
	github.com/jtolds/gls v4.20.0+incompatible // indirect
	github.com/kr/pretty v0.2.1 // indirect
	github.com/pmezard/go-difflib v1.0.0 // indirect
	github.com/smarty/assertions v1.15.0 // indirect
	github.com/stretchr/objx v0.5.2 // indirect
	gopkg.in/check.v1 v1.0.0-20190902080502-41f04d3bba15 // indirect
	gopkg.in/yaml.v3 v3.0.1 // indirect
)
